.                                                                     .
                      ...
                      `;8P.b_
                         ''""'`+.Yp...
                                   \.\]\\
                          Y\.._         \b\
                           `"\/>.        `/-.
                              ''"\8\      `.Y.
                                   `b\     `Pb
                                     \\.    .+
                            p           \   ||
                            88p         \.  /|
                             ''\8=\._    \ |\|                    ___
                                `"-./\Y._|\|'                    /  /
                                        '"|+                    /  /
                                          ||                  _/ ./
                                          |/                 / ./
                                          ||
                                          ||
                                          |      Brought to you by:
                                          |
                                          |        TheOuterLinux
                                         .|
       //   ) )                         /'          //   ) ) //   ) )
      //___/ /  ___               ___   | / __     //   / / ((
     / ____ / ((   ) ) //   / / //   ),) //   ) ) //   / /    \\
    //         \ \    ((___/ / //     ' //   / / //   / /       ) )
   //       //   ) )      / / ((____   //   / / ((___/ / ((___ / /

.                                                                     .
