.                                                                     .
                      ...
                      `;8P.b_
                         ''""'`+.Yp...
                                   \.\]\\
                          Y\.._         \b\
                           `"\/>.        `/-.
                              ''"\8\      `.Y.
                                   `b\     `Pb
                                     \\.    .+
                            p           \   ||
                            88p         \.  /|
                             ''\8=\._    \ |\|
          //   ) )              `"-./\Y._|\|'          //   ) ) //   )
         //___/ /  ___               ___'"|+ / __     //   / / ((
        / ____ / ((   ) ) //   / / //   ) )|//   ) ) //   / /    \\
       //         \ \    ((___/ / //      |//   / / //   / /       ) )
      //       //   ) )      / / ((____   ++   / / ((___/ / ((___ / /
                                          ||                         )
                                          |
                                          )
                                          |/
                                         .+/
                                        /'





.                                                                     .
