XXXXXXXXXX,-'                                          `-.XXXXXXXXXXXXX
XXXXXXXX,'                                                `._XXXXXXXXXX
XXXXXX,'                                                     `.XXXXXXXX
XXXX,'                                                         \XXXXXXX
XXX/                                                            `.XXXXX
X,'                                                               \XXXX
/                                                                  \XXX
                                                                    \XX
                                                                     \X
                                                                      |
                                                                      '








                                                                      /
                                                                      /
                                                                     /X
                                                                    /XX
`.                                                                 /XXX
XX\                                                              ,'XXXX
XXX\                                                            /XXXXXX
XXXX`.                                                        ,'XXXXXXX
XXXXXX`.                                                    ,'XXXXXXXXX
XXXXXXXX`._                                               ,'XXXXXXXXXXX
XXXXXXXXXXX`._                                         ,-'XXXXXXXXXXXXX
